<svg viewBox="0 0 46 25" width="46" height="25" xmlns="http://www.w3.org/2000/svg">
  <g fill="none" fill-rule="evenodd"><path d="M44.5 1.5L23 23.5 1.5 1.5" stroke="#004F51" stroke-width="2"/></g>
</svg>

