<svg viewBox="0 0 23 13" width="23" height="13" xmlns="http://www.w3.org/2000/svg"><g fill="none" fill-rule="evenodd">
  <g stroke="currentColor" stroke-width="2"><path d="M0 6.5h20M15 1l6 5.5-6 5.5"/></g></g>
</svg>

