

<svg viewBox="0 0 61 13" width="61" height="13" xmlns="http://www.w3.org/2000/svg">
  <g fill="none" fill-rule="evenodd">
    <g stroke="#004F51" stroke-width="2"><path d="M.105641 6.5h58M53.105641 1l5.72 5.5-5.72 5.5"/></g>
  </g>
</svg>